…
#### 1.3 Filter gapminder to all entries that have experienced a drop in life expectancy. Be sure to include a new variable that’s the increase in life expectancy in your tibble. Hint: you might find the lag() or diff() functions useful.

``` r
  mi_gap %>% select(continent, country, year, lifeExp) %>% 
  group_by(country) %>%  
  mutate(drop = lifeExp- lag(lifeExp)) %>% 
   filter(drop < 0) 
```

    ## # A tibble: 102 x 5
    ## # Groups:   country [52]
    ##    continent country   year lifeExp    drop
    ##    <fct>     <fct>    <int>   <dbl>   <dbl>
    ##  1 Europe    Albania   1992    71.6  -0.419
    ##  2 Africa    Angola    1987    39.9  -0.036
    ##  3 Africa    Benin     2002    54.4  -0.371
    ##  4 Africa    Botswana  1992    62.7  -0.877
    ##  5 Africa    Botswana  1997    52.6 -10.2  
    ##  6 Africa    Botswana  2002    46.6  -5.92 
    ##  7 Europe    Bulgaria  1977    70.8  -0.09 
    ##  8 Europe    Bulgaria  1992    71.2  -0.15 
    ##  9 Europe    Bulgaria  1997    70.3  -0.87 
    ## 10 Africa    Burundi   1992    44.7  -3.48 
    ## # … with 92 more rows
…
