…
``` r
#Storing the output as an object

my_precious <- my_gap %>% filter(country =="Canada")
```

``` r
 my_gap %>% mutate(gdp = pop*gdpPercap)
```

    ## # A tibble: 1,704 x 7
    ##    country     continent  year lifeExp      pop gdpPercap          gdp
    ##    <fct>       <fct>     <int>   <dbl>    <int>     <dbl>        <dbl>
    ##  1 Afghanistan Asia       1952    28.8  8425333      779.  6567086330.
    ##  2 Afghanistan Asia       1957    30.3  9240934      821.  7585448670.
    ##  3 Afghanistan Asia       1962    32.0 10267083      853.  8758855797.
    ##  4 Afghanistan Asia       1967    34.0 11537966      836.  9648014150.
    ##  5 Afghanistan Asia       1972    36.1 13079460      740.  9678553274.
    ##  6 Afghanistan Asia       1977    38.4 14880372      786. 11697659231.
    ##  7 Afghanistan Asia       1982    39.9 12881816      978. 12598563401.
    ##  8 Afghanistan Asia       1987    40.8 13867957      852. 11820990309.
    ##  9 Afghanistan Asia       1992    41.7 16317921      649. 10595901589.
    ## 10 Afghanistan Asia       1997    41.8 22227415      635. 14121995875.
    ## # … with 1,694 more rows
…
!!!!Remember: Trust No One. Including (especially?) yourself. Always try to find a way to check that you’ve done what meant to. Prepare to be horrified.
========================================================================================================================================================

Arrange function
----------------

``` r
#Use arrange() to row-order data in a principled way
#Example to arrange by year then country
my_gap %>% arrange(year, country)
```

    ## # A tibble: 1,704 x 7
    ##    country     continent  year lifeExp      pop gdpPercap gdpRelaC
    ##    <fct>       <fct>     <int>   <dbl>    <int>     <dbl>    <dbl>
    ##  1 Afghanistan Asia       1952    28.8  8425333      779.   0.0686
    ##  2 Albania     Europe     1952    55.2  1282697     1601.   0.141 
    ##  3 Algeria     Africa     1952    43.1  9279525     2449.   0.215 
    ##  4 Angola      Africa     1952    30.0  4232095     3521.   0.310 
    ##  5 Argentina   Americas   1952    62.5 17876956     5911.   0.520 
    ##  6 Australia   Oceania    1952    69.1  8691212    10040.   0.883 
    ##  7 Austria     Europe     1952    66.8  6927772     6137.   0.540 
    ##  8 Bahrain     Asia       1952    50.9   120447     9867.   0.868 
    ##  9 Bangladesh  Asia       1952    37.5 46886859      684.   0.0602
    ## 10 Belgium     Europe     1952    68    8730405     8343.   0.734 
    ## # … with 1,694 more rows

``` r
#Example to arrange by continent then country
my_gap %>% arrange(continent, country)
```

    ## # A tibble: 1,704 x 7
    ##    country continent  year lifeExp      pop gdpPercap gdpRelaC
    ##    <fct>   <fct>     <int>   <dbl>    <int>     <dbl>    <dbl>
    ##  1 Algeria Africa     1952    43.1  9279525     2449.    0.215
    ##  2 Algeria Africa     1957    45.7 10270856     3014.    0.241
    ##  3 Algeria Africa     1962    48.3 11000948     2551.    0.189
    ##  4 Algeria Africa     1967    51.4 12760499     3247.    0.202
    ##  5 Algeria Africa     1972    54.5 14760787     4183.    0.220
    ##  6 Algeria Africa     1977    58.0 17152804     4910.    0.222
    ##  7 Algeria Africa     1982    61.4 20033753     5745.    0.251
    ##  8 Algeria Africa     1987    65.8 23254956     5681.    0.213
    ##  9 Algeria Africa     1992    67.7 26298373     5023.    0.191
    ## 10 Algeria Africa     1997    69.2 29072015     4797.    0.166
    ## # … with 1,694 more rows

``` r
#example one year but sorted by life expectancy
 my_gap %>% filter(year == 1952) %>% arrange(gdpPercap) %>% select(country, continent, year, gdpPercap)
```

    ## # A tibble: 142 x 4
    ##    country           continent  year gdpPercap
    ##    <fct>             <fct>     <int>     <dbl>
    ##  1 Lesotho           Africa     1952      299.
    ##  2 Guinea-Bissau     Africa     1952      300.
    ##  3 Eritrea           Africa     1952      329.
    ##  4 Myanmar           Asia       1952      331 
    ##  5 Burundi           Africa     1952      339.
    ##  6 Ethiopia          Africa     1952      362.
    ##  7 Cambodia          Asia       1952      368.
    ##  8 Malawi            Africa     1952      369.
    ##  9 Equatorial Guinea Africa     1952      376.
    ## 10 China             Asia       1952      400.
    ## # … with 132 more rows

``` r
 #NOw in descending order for 2007
 
 my_gap %>% filter(year == 2007) %>% arrange(desc(gdpPercap)) %>% select(country, continent, year, gdpPercap)
```

    ## # A tibble: 142 x 4
    ##    country          continent  year gdpPercap
    ##    <fct>            <fct>     <int>     <dbl>
    ##  1 Norway           Europe     2007    49357.
    ##  2 Kuwait           Asia       2007    47307.
    ##  3 Singapore        Asia       2007    47143.
    ##  4 United States    Americas   2007    42952.
    ##  5 Ireland          Europe     2007    40676.
    ##  6 Hong Kong, China Asia       2007    39725.
    ##  7 Switzerland      Europe     2007    37506.
    ##  8 Netherlands      Europe     2007    36798.
    ##  9 Canada           Americas   2007    36319.
    ## 10 Iceland          Europe     2007    36181.
    ## # … with 132 more rows
…
Rename, Select, and Group by
----------------------------

``` r
#camelCase Vs snake_case
#Rename variables (not assigning!)

my_gap %>% rename(life_exp = lifeExp,
                  gdp_percap = gdpPercap,
                  gdp_percap_rel = gdpRelaC)
```

    ## # A tibble: 1,704 x 7
    ##    country     continent  year life_exp      pop gdp_percap gdp_percap_rel
    ##    <fct>       <fct>     <int>    <dbl>    <int>      <dbl>          <dbl>
    ##  1 Afghanistan Asia       1952     28.8  8425333       779.         0.0686
    ##  2 Afghanistan Asia       1957     30.3  9240934       821.         0.0657
    ##  3 Afghanistan Asia       1962     32.0 10267083       853.         0.0634
    ##  4 Afghanistan Asia       1967     34.0 11537966       836.         0.0520
    ##  5 Afghanistan Asia       1972     36.1 13079460       740.         0.0390
    ##  6 Afghanistan Asia       1977     38.4 14880372       786.         0.0356
    ##  7 Afghanistan Asia       1982     39.9 12881816       978.         0.0427
    ##  8 Afghanistan Asia       1987     40.8 13867957       852.         0.0320
    ##  9 Afghanistan Asia       1992     41.7 16317921       649.         0.0246
    ## 10 Afghanistan Asia       1997     41.8 22227415       635.         0.0219
    ## # … with 1,694 more rows
…
GROUP MUTATE
------------

``` r
#computing with group-wise summaries
#EXample, year of life exp gained relative to 1952 per country.

my_gap %>% 
  group_by(country) %>% 
  select(country, year, lifeExp) %>% 
  mutate(lifeExp_gain = lifeExp - first(lifeExp)) %>% 
  filter(year < 1963, year > 1952)
```

    ## # A tibble: 284 x 4
    ## # Groups:   country [142]
    ##    country      year lifeExp lifeExp_gain
    ##    <fct>       <int>   <dbl>        <dbl>
    ##  1 Afghanistan  1957    30.3         1.53
    ##  2 Afghanistan  1962    32.0         3.20
    ##  3 Albania      1957    59.3         4.05
    ##  4 Albania      1962    64.8         9.59
    ##  5 Algeria      1957    45.7         2.61
    ##  6 Algeria      1962    48.3         5.23
    ##  7 Angola       1957    32.0         1.98
    ##  8 Angola       1962    34           3.98
    ##  9 Argentina    1957    64.4         1.91
    ## 10 Argentina    1962    65.1         2.66
    ## # … with 274 more rows
…
