…
``` r
# 1.3 Drop in life expectancy
gapminder %>% 
  group_by(country) %>% 
  mutate(delta_life_exp = gdpPercap - lag(gdpPercap)) %>%
  filter(delta_life_exp < 0) 
```

    ## # A tibble: 332 x 7
    ## # Groups:   country [115]
    ##    country     continent  year lifeExp      pop gdpPercap delta_life_exp
    ##    <fct>       <fct>     <int>   <dbl>    <int>     <dbl>          <dbl>
    ##  1 Afghanistan Asia       1967    34.0 11537966      836.          -16.9
    ##  2 Afghanistan Asia       1972    36.1 13079460      740.          -96.2
    ##  3 Afghanistan Asia       1987    40.8 13867957      852.         -126. 
    ##  4 Afghanistan Asia       1992    41.7 16317921      649.         -203. 
    ##  5 Afghanistan Asia       1997    41.8 22227415      635.          -14.0
    ##  6 Albania     Europe     1992    71.6  3326498     2497.        -1241. 
    ##  7 Algeria     Africa     1962    48.3 11000948     2551.         -463. 
    ##  8 Algeria     Africa     1987    65.8 23254956     5681.          -63.8
    ##  9 Algeria     Africa     1992    67.7 26298373     5023.         -658. 
    ## 10 Algeria     Africa     1997    69.2 29072015     4797.         -226. 
    ## # … with 322 more rows

``` r
# Note that Dplyr functions automatically removes NAs and don't accept the na.rm argument

# 1.4a Max GDP per country
gapminder %>% 
  group_by(country) %>% 
  summarize(max_gdp = max(gdpPercap))
```

    ## # A tibble: 142 x 2
    ##    country     max_gdp
    ##    <fct>         <dbl>
    ##  1 Afghanistan    978.
    ##  2 Albania       5937.
    ##  3 Algeria       6223.
    ##  4 Angola        5523.
    ##  5 Argentina    12779.
    ##  6 Australia    34435.
    ##  7 Austria      36126.
    ##  8 Bahrain      29796.
    ##  9 Bangladesh    1391.
    ## 10 Belgium      33693.
    ## # … with 132 more rows
…
