…
Example of code for writing csv and RDS files and using mutate to
re-order factors with `forcats` package. Note that the **row order of
the dataframe does not change**.

``` r
#Make a useful toy example data summary output
gap_life_exp <- gapdata %>% 
                  group_by(country, continent) %>% 
                  summarize(life_exp = max(lifeExp)) %>% 
                  ungroup()
gap_life_exp 
```

    ## # A tibble: 142 x 3
    ##    country     continent life_exp
    ##    <fct>       <fct>        <dbl>
    ##  1 Afghanistan Asia          43.8
    ##  2 Albania     Europe        76.4
    ##  3 Algeria     Africa        72.3
    ##  4 Angola      Africa        42.7
    ##  5 Argentina   Americas      75.3
    ##  6 Australia   Oceania       81.2
    ##  7 Austria     Europe        79.8
    ##  8 Bahrain     Asia          75.6
    ##  9 Bangladesh  Asia          64.1
    ## 10 Belgium     Europe        79.4
    ## # … with 132 more rows
…
    ## The following object is masked from 'package:base':
    ## 
    ##     date

``` r
library(nycflights13)
#Note do NOT try to use 'datatable' to format this, as the dataset is WAY too big and it makes R freeze
flights %>% 
  select(year, month, day, hour, minute) %>% 
  mutate(departure = make_datetime(year, month, day, hour, minute))
```

    ## # A tibble: 336,776 x 6
    ##     year month   day  hour minute departure          
    ##    <int> <int> <int> <dbl>  <dbl> <dttm>             
    ##  1  2013     1     1     5     15 2013-01-01 05:15:00
    ##  2  2013     1     1     5     29 2013-01-01 05:29:00
    ##  3  2013     1     1     5     40 2013-01-01 05:40:00
    ##  4  2013     1     1     5     45 2013-01-01 05:45:00
    ##  5  2013     1     1     6      0 2013-01-01 06:00:00
    ##  6  2013     1     1     5     58 2013-01-01 05:58:00
    ##  7  2013     1     1     6      0 2013-01-01 06:00:00
    ##  8  2013     1     1     6      0 2013-01-01 06:00:00
    ##  9  2013     1     1     6      0 2013-01-01 06:00:00
    ## 10  2013     1     1     6      0 2013-01-01 06:00:00
    ## # … with 336,766 more rows
…
