…
You need to make the data frame into a tibble and then use the print
function to specify the number of rows. You can also use the options in
`print` to change the max number of extra columns to print abbreviated
information for if the width of the console isn’t wide enough.

``` r
# Default max is 20 rows
print(as.tibble(iris))
```

    ## Warning: `as.tibble()` is deprecated, use `as_tibble()` (but mind the new semantics).
    ## This warning is displayed once per session.

    ## # A tibble: 150 x 5
    ##    Sepal.Length Sepal.Width Petal.Length Petal.Width Species
    ##           <dbl>       <dbl>        <dbl>       <dbl> <fct>  
    ##  1          5.1         3.5          1.4         0.2 setosa 
    ##  2          4.9         3            1.4         0.2 setosa 
    ##  3          4.7         3.2          1.3         0.2 setosa 
    ##  4          4.6         3.1          1.5         0.2 setosa 
    ##  5          5           3.6          1.4         0.2 setosa 
    ##  6          5.4         3.9          1.7         0.4 setosa 
    ##  7          4.6         3.4          1.4         0.3 setosa 
    ##  8          5           3.4          1.5         0.2 setosa 
    ##  9          4.4         2.9          1.4         0.2 setosa 
    ## 10          4.9         3.1          1.5         0.1 setosa 
    ## # … with 140 more rows

``` r
# Print 3 rows
print(as_tibble(iris), n = 3)
```

    ## # A tibble: 150 x 5
    ##   Sepal.Length Sepal.Width Petal.Length Petal.Width Species
    ##          <dbl>       <dbl>        <dbl>       <dbl> <fct>  
    ## 1          5.1         3.5          1.4         0.2 setosa 
    ## 2          4.9         3            1.4         0.2 setosa 
    ## 3          4.7         3.2          1.3         0.2 setosa 
    ## # … with 147 more rows

``` r
# Print 30 rows
print(as_tibble(iris), n = 30)
```

    ## # A tibble: 150 x 5
    ##    Sepal.Length Sepal.Width Petal.Length Petal.Width Species
    ##           <dbl>       <dbl>        <dbl>       <dbl> <fct>  
    ##  1          5.1         3.5          1.4         0.2 setosa 
    ##  2          4.9         3            1.4         0.2 setosa 
    ##  3          4.7         3.2          1.3         0.2 setosa 
    ##  4          4.6         3.1          1.5         0.2 setosa 
    ##  5          5           3.6          1.4         0.2 setosa 
    ##  6          5.4         3.9          1.7         0.4 setosa 
    ##  7          4.6         3.4          1.4         0.3 setosa 
    ##  8          5           3.4          1.5         0.2 setosa 
    ##  9          4.4         2.9          1.4         0.2 setosa 
    ## 10          4.9         3.1          1.5         0.1 setosa 
    ## 11          5.4         3.7          1.5         0.2 setosa 
    ## 12          4.8         3.4          1.6         0.2 setosa 
    ## 13          4.8         3            1.4         0.1 setosa 
    ## 14          4.3         3            1.1         0.1 setosa 
    ## 15          5.8         4            1.2         0.2 setosa 
    ## 16          5.7         4.4          1.5         0.4 setosa 
    ## 17          5.4         3.9          1.3         0.4 setosa 
    ## 18          5.1         3.5          1.4         0.3 setosa 
    ## 19          5.7         3.8          1.7         0.3 setosa 
    ## 20          5.1         3.8          1.5         0.3 setosa 
    ## 21          5.4         3.4          1.7         0.2 setosa 
    ## 22          5.1         3.7          1.5         0.4 setosa 
    ## 23          4.6         3.6          1           0.2 setosa 
    ## 24          5.1         3.3          1.7         0.5 setosa 
    ## 25          4.8         3.4          1.9         0.2 setosa 
    ## 26          5           3            1.6         0.2 setosa 
    ## 27          5           3.4          1.6         0.4 setosa 
    ## 28          5.2         3.5          1.5         0.2 setosa 
    ## 29          5.2         3.4          1.4         0.2 setosa 
    ## 30          4.7         3.2          1.6         0.2 setosa 
    ## # … with 120 more rows
…
  - `reduce(.x, .f)` This function combines all elements of a list into
    a single object by iteratively applying a function that takes two
    inputs. Very very handy for doing many `left_join()` in a row or
    **doing repeated `rbinds` to turn the rows of a list back into a
    single data frame**. There is also a `reduce2` version. `accumulate`
    does the same things but also returns the intermediate values.

<!-- end list -->

``` r
#Ex of rbind and reducing a list into a data frame
gapminder_list %>% reduce(rbind)
```

    ## # A tibble: 25 x 6
    ##    country            continent  year lifeExp      pop gdpPercap
    ##    <fct>              <fct>     <int>   <dbl>    <int>     <dbl>
    ##  1 Cote d'Ivoire      Africa     1982    54.0  9025951     2603.
    ##  2 Angola             Africa     2002    41.0 10866106     2773.
    ##  3 Guinea-Bissau      Africa     1992    43.3  1050938      746.
    ##  4 Ethiopia           Africa     1957    36.7 22815614      379.
    ##  5 Senegal            Africa     1972    45.8  4588696     1598.
    ##  6 Puerto Rico        Americas   1997    74.9  3759430    16999.
    ##  7 Nicaragua          Americas   2007    72.9  5675356     2749.
    ##  8 Haiti              Americas   1977    49.9  4908554     1874.
    ##  9 Dominican Republic Americas   1957    49.8  2923186     1544.
    ## 10 Bolivia            Americas   1982    53.9  5642224     3157.
    ## # … with 15 more rows
…
