…
``` r
# How to extract the data on the first continent (Asia)?
#Method1 - square brackets
gpm_nested$data[[1]]
```

    ## # A tibble: 396 x 5
    ##    country      year lifeExp      pop gdpPercap
    ##    <fct>       <int>   <dbl>    <int>     <dbl>
    ##  1 Afghanistan  1952    28.8  8425333      779.
    ##  2 Afghanistan  1957    30.3  9240934      821.
    ##  3 Afghanistan  1962    32.0 10267083      853.
    ##  4 Afghanistan  1967    34.0 11537966      836.
    ##  5 Afghanistan  1972    36.1 13079460      740.
    ##  6 Afghanistan  1977    38.4 14880372      786.
    ##  7 Afghanistan  1982    39.9 12881816      978.
    ##  8 Afghanistan  1987    40.8 13867957      852.
    ##  9 Afghanistan  1992    41.7 16317921      649.
    ## 10 Afghanistan  1997    41.8 22227415      635.
    ## # … with 386 more rows

``` r
#Method2 - pluck
gpm_nested %>% pluck("data", 1) #This says to extract the first entry from the first data column
```

    ## # A tibble: 396 x 5
    ##    country      year lifeExp      pop gdpPercap
    ##    <fct>       <int>   <dbl>    <int>     <dbl>
    ##  1 Afghanistan  1952    28.8  8425333      779.
    ##  2 Afghanistan  1957    30.3  9240934      821.
    ##  3 Afghanistan  1962    32.0 10267083      853.
    ##  4 Afghanistan  1967    34.0 11537966      836.
    ##  5 Afghanistan  1972    36.1 13079460      740.
    ##  6 Afghanistan  1977    38.4 14880372      786.
    ##  7 Afghanistan  1982    39.9 12881816      978.
    ##  8 Afghanistan  1987    40.8 13867957      852.
    ##  9 Afghanistan  1992    41.7 16317921      649.
    ## 10 Afghanistan  1997    41.8 22227415      635.
    ## # … with 386 more rows
…
